%YAML 1.1
%TAG !u! tag:unity3d.com,2011:
--- !u!114 &11400000
MonoBehaviour:
  m_ObjectHideFlags: 0
  m_CorrespondingSourceObject: {fileID: 0}
  m_PrefabInstance: {fileID: 0}
  m_PrefabAsset: {fileID: 0}
  m_GameObject: {fileID: 0}
  m_Enabled: 1
  m_EditorHideFlags: 0
  m_Script: {fileID: 11500000, guid: 8517e397ed8b5254ba5e4681f44a0b61, type: 3}
  m_Name: Locate1
  m_EditorClassIdentifier: 
  storyText: "\u043B\u043E\u043A\u0430 1"
  nextStates:
  - {fileID: 11400000, guid: f534de6fb15a4804695d1b22386e5880, type: 2}
  - {fileID: 11400000, guid: ea4ed9446ce82de46a7ac27a73593f42, type: 2}
